{
  "baseUrl": "https://dev.freq.us/api/2.0/",
  "pages": [
    {
      "pageId": "discover",
      "title": "Discover",
      "template": "Discover",
      "icon": "http://trinhmanh.bitbucket.org/img/compass.png",
      "content": [
        {
          "rowId": "your-highlights",
          "title": "What's New For You",
          "uri": "channels/894/videos",
          "className": "videos",
          "size":"big",
          "reorderable": true,
          "pagination": true
        },
        {
          "rowId": "popular-channels",
          "title": "Popular Channels",
          "uri": "popular/channels",
          "className": "channels",
          "size":"medium",
          "reorderable": false,
          "pagination": true
        }
      ]
    },
    {
      "pageId": "sport",
      "title": "Sport",
      "template": "sport",
      "icon": "http://trinhmanh.bitbucket.org/img/favorite.png",
      "content": [
        {
          "rowId": "sport-videos",
          "title": "My Favorite Videos",
          "uri": "featured/channels",
          "className": "channels",
          "reorderable": false,
          "pagination": false
        },
        {
          "rowId": "sport-history",
          "title": "Recently Watched",
          "uri": "featured/channels",
          "className": "channels",
          "reorderable": true,
          "pagination": true
        },
        {
          "rowId": "sport-favorite-channels",
          "title": "My Favorite Channels",
          "uri": "featured/channels",
          "className": "channels",
          "reorderable": true,
          "pagination": false
        }
      ]
    },
    {
      "pageId": "kids",
      "title": "Kids",
      "template": "Kids",
      "icon": "http://trinhmanh.bitbucket.org/img/search.png",
      "content": [
        {
          "rowId": "character-channels",
          "title": "",
          "uri": "featured/channels",
          "className": "channels",
          "reorderable": false,
          "pagination": false
        },
        {
          "rowId": "kids-videos1",
          "title": "Disney",
          "uri": "featured/channels",
          "className": "channels",
          "reorderable": true,
          "pagination": true
        },
        {
          "rowId": "kids-videos2",
          "title": "Nickelodeon",
          "uri": "featured/channels",
          "className": "channels",
          "reorderable": true,
          "pagination": false
        },
        {
          "rowId": "kids-featured-channels",
          "title": "Featured Channels",
          "uri": "featured/channels",
          "className": "channels",
          "reorderable": true,
          "pagination": false
        }
      ]
    }
  ]
}